u1,/
u1,/
u1,/
u1,subscribers
u2,/
u2,subscribers
u2,subscribers
u2,subscribers
u1,filter
u1,export
u1,export
u1,filter
u1,export
u2,filter
u2,filter
u1,/
u1,/
u1,contacts
u2,export
u2,subscribers
u2,subscribers
u2,subscribers
u2,/
u2,subscribers
u2,filter
u3,/
u2,export
u3,/
u3,/
u3,catalog
u3,edit
u3,filter
u3,cancel
u1,/
u1,/
u1,/
u1,subscribers
u2,/
u2,subscribers
u2,subscribers
u2,subscribers
u1,filter
u1,export
u1,export
u1,filter
u1,export
u2,filter
u2,filter
u1,/
u1,/
u1,contacts
u2,export
u2,subscribers
u2,subscribers
u2,subscribers
u2,/
u2,subscribers
u2,filter
u3,/
u2,export
u3,/
u3,/
u3,catalog
u3,edit
u3,filter
u3,cancel
u2,/
u2,subscribers
u2,subscribers
u2,subscribers
u1,filter
u1,export
u1,export
u1,filter
u1,export
u2,filter
u2,filter
u3,/
u2,export
u3,/
u3,/
u3,catalog
u3,edit
u3,filter
